-------------------------------------------------------------------
n     t_n     u_n     u`_n    v_n     v`_n
-------------------------------------------------------------------
 0     1.253314     1.570796     0.000000     0.000000    -9.869604 
 1     1.303314     1.570796    -0.493480    -0.493480   -11.267975 
 2     1.353314     1.546122    -1.056879    -1.056879   -12.579601 
 3     1.403314     1.493278    -1.685859    -1.685859   -13.728283 
 4     1.453314     1.408985    -2.372273    -2.372273   -14.624434 
 5     1.503314     1.290372    -3.103495    -3.103495   -15.166230 
 6     1.553314     1.135197    -3.861806    -3.861806   -15.241979 
 7     1.603314     0.942107    -4.623905    -4.623905   -14.733995 
 8     1.653314     0.710911    -5.360605    -5.360605   -13.524214 
 9     1.703314     0.442881    -6.036816    -6.036816   -11.501752 
10     1.753314     0.141040    -6.611903    -6.611903    -8.572497 
11     1.803314    -0.189555    -7.040528    -7.040528    -4.670694 
12     1.853314    -0.541581    -7.274063    -7.274063     0.227730 
13     1.903314    -0.905284    -7.262677    -7.262677     6.090607 
14     1.953314    -1.268418    -6.958146    -6.958146    12.814555 
15     2.003314    -1.616325    -6.317418    -6.317418    20.210783 
16     2.053314    -1.932196    -5.306879    -5.306879    27.993217 
17     2.103314    -2.197540    -3.907218    -3.907218    35.770917 
18     2.153314    -2.392901    -2.118673    -2.118673    43.047009 
19     2.203314    -2.498835     0.033678     0.033678    49.226612 
20     2.253314    -2.497151     2.495008     2.495008    53.636198 
21     2.303314    -2.372401     5.176818     5.176818    55.556587 
22     2.353314    -2.113560     7.954648     7.954648    54.271116 
23     2.403314    -1.715827    10.668204    10.668204    49.129462 
24     2.453314    -1.182417    13.124677    13.124677    39.626008 
25     2.503314    -0.526183    15.105977    15.105977    25.489591 
26     2.553314     0.229116    16.380457    16.380457     6.778929 
27     2.603314     1.048138    16.719403    16.719403   -16.024818 
28     2.653314     1.884109    15.918162    15.918162   -41.939762 
29     2.703314     2.680017    13.821174    13.821174   -69.433313 
30     2.753314     3.371075    10.349508    10.349508   -96.416335 
31     2.803314     3.888551     5.528692     5.528692  -120.297657 
32     2.853314     4.164985    -0.486191    -0.486191  -138.113585 
33     2.903314     4.140676    -7.391870    -7.391870  -146.742784 
34     2.953314     3.771082   -14.729010   -14.729010  -143.209503 
35     3.003314     3.034632   -21.889485   -21.889485  -125.067321 
36     3.053314     1.940158   -28.142851   -28.142851   -90.841612 
37     3.103314     0.533015   -32.684931   -32.684931   -40.492567 
38     3.153314    -1.101232   -34.709560   -34.709560    24.156658 
39     3.203314    -2.836710   -33.501727   -33.501727    99.097845 
40     3.253314    -4.511796   -28.546835   -28.546835   178.003985 
41     3.303314    -5.939138   -19.646635   -19.646635   252.369027 
42     3.353314    -6.921469    -7.028184    -7.028184   311.996561 
43     3.403314    -7.272879     8.571644     8.571644   345.887365 
44     3.453314    -6.844296    25.866012    25.866012   343.531725 
45     3.503314    -5.550996    43.042599    43.042599   296.549974 
46     3.553314    -3.398866    57.870097    57.870097   200.546684 
47     3.603314    -0.505361    67.897431    67.897431    56.957839 
48     3.653314     2.889511    70.745323    70.745323  -125.411854 
49     3.703314     6.426777    64.474731    64.474731  -329.525850 
50     3.753314     9.650513    47.998438    47.998438  -530.311750 
